…
Converting into tibble data frame
=================================

``` r
filteredData <- as_tibble(fullData)
filteredData
```

    ## # A tibble: 16,800 x 11
    ##    ï..rownumber business_id city  stars review_count is_open category
    ##           <int> <fct>       <fct> <dbl>        <int>   <int> <fct>   
    ##  1            1 _1cBVJcvvx~ Las ~     2           13       1 Beauty ~
    ##  2            2 _1cBVJcvvx~ Las ~     2           13       1 Beauty ~
    ##  3            3 _1cBVJcvvx~ Las ~     2           13       1 Beauty ~
    ##  4            4 _1cBVJcvvx~ Las ~     2           13       1 Beauty ~
    ##  5            5 _1cBVJcvvx~ Las ~     2           13       1 Beauty ~
    ##  6            6 _1cBVJcvvx~ Las ~     2           13       1 Beauty ~
    ##  7            7 _1cBVJcvvx~ Las ~     2           13       1 Beauty ~
    ##  8            8 _1cBVJcvvx~ Las ~     2           13       1 Beauty ~
    ##  9            9 _1cBVJcvvx~ Las ~     2           13       1 Beauty ~
    ## 10           10 _1cBVJcvvx~ Las ~     2           13       1 Beauty ~
    ## # ... with 16,790 more rows, and 4 more variables: day_time <fct>,
    ## #   week_day <fct>, hourofday <int>, checkins <int>
…
``` r
filteredData <- filteredData %>% filter(city == "Phoenix")
```

Remove columns: \[Row number, city, day\_tile\]
===============================================

``` r
filteredData <- filteredData %>% select(stars , review_count , is_open , category ,week_day,hourofday,checkins)
filteredData
```

    ## # A tibble: 2,856 x 7
    ##    stars review_count is_open category         week_day hourofday checkins
    ##    <dbl>        <int>   <int> <fct>            <fct>        <int>    <int>
    ##  1     5            5       1 Health & Medical Fri              0        0
    ##  2     5            5       1 Health & Medical Fri              1        0
    ##  3     5            5       1 Health & Medical Fri             10        0
    ##  4     5            5       1 Health & Medical Fri             11        0
    ##  5     5            5       1 Health & Medical Fri             12        0
    ##  6     5            5       1 Health & Medical Fri             13        0
    ##  7     5            5       1 Health & Medical Fri             14        0
    ##  8     5            5       1 Health & Medical Fri             15        0
    ##  9     5            5       1 Health & Medical Fri             16        0
    ## 10     5            5       1 Health & Medical Fri             17        0
    ## # ... with 2,846 more rows

Recoding Week day to the asociative day of week
===============================================

``` r
filteredData$week_day <-recode(filteredData$week_day,'Sun'=1, 'Mon'=2, 'Tue'=3, 'Wed'=4 , 'Thu'=5, 'Fri'=6,'Sat'=7)
filteredData
```

    ## # A tibble: 2,856 x 7
    ##    stars review_count is_open category         week_day hourofday checkins
    ##    <dbl>        <int>   <int> <fct>               <dbl>     <int>    <int>
    ##  1     5            5       1 Health & Medical        6         0        0
    ##  2     5            5       1 Health & Medical        6         1        0
    ##  3     5            5       1 Health & Medical        6        10        0
    ##  4     5            5       1 Health & Medical        6        11        0
    ##  5     5            5       1 Health & Medical        6        12        0
    ##  6     5            5       1 Health & Medical        6        13        0
    ##  7     5            5       1 Health & Medical        6        14        0
    ##  8     5            5       1 Health & Medical        6        15        0
    ##  9     5            5       1 Health & Medical        6        16        0
    ## 10     5            5       1 Health & Medical        6        17        0
    ## # ... with 2,846 more rows
…
